{"title":null, 
     "colorway":["#4286f4", "#95c631", "#F49007", 
            "#ffd600", "#ff5959", "#ca7cdd",
            "#323232", "#a0c2f9", "#cae298", 
            "#f9c783", "#ffacac", "#e4bdee", 
            "#989898"],
     "height":510, 
     "width":780, 
     "showlegend":true, 
     "margin":
        {"t":30,
        "b":80,
        "l":150,
        "r": 150,
        "pad":0},
     
     "yaxis":{
         "automargin":false,
         "zeroline":false,
         "ticks":"outside",
         "tickwidth":2.5,
         "ticklen":8,
         "showgrid":false,
         "visible":true,
        "color":"#000",
         "linewidth":2.5,
        "mirror":true,
         "titlefont":{
                 "size":28, 
                 "family":"Helvetica, arial, sans-serif"},
        "tickfont":{
                 "size":26, 
                 "family":"Helvetica, arial, sans-serif"}},
    "xaxis":{
        "automargin":false,
        "zeroline":false,
        "ticks":"outside",
        "tickwidth":2.5,
        "ticklen":8,
        "showgrid":false,
        "visible":true,
        "color":"#000",
        "linewidth":2.5,
        "mirror":true,
        "titlefont":{"size":28, "family":"Helvetica, arial, sans-serif"},
        "tickfont":{
                 "size":26, 
                 "family":"Helvetica, arial, sans-serif"}},
     "legend":{"font":{"size": 22, "family":"Helvetica, arial, sans-serif"}, "x":0.99, "y":0.99, "xanchor":"right"},
     "modebar":{"orientation":"h"}
    
    
}